<?xml version="1.0" encoding="utf-8"?>
<!-- Generator: Adobe Illustrator 17.0.0, SVG Export Plug-In . SVG Version: 6.00 Build 0)  -->
<!DOCTYPE svg PUBLIC "-//W3C//DTD SVG 1.1//EN" "http://www.w3.org/Graphics/SVG/1.1/DTD/svg11.dtd">
<svg version="1.1" id="Layer_1" xmlns="http://www.w3.org/2000/svg" xmlns:xlink="http://www.w3.org/1999/xlink" x="0px" y="0px"
	 width="612px" height="792px" viewBox="0 0 612 792" enable-background="new 0 0 612 792" xml:space="preserve">
<title>cleversell final logo</title>
<path fill="#185CA0" d="M138.489,240.543l24.965-49.432l30.614,7.639l14.82,4.854l33.18,53.709l18.082-14.024l15.038-52.276
	l53.868-45.493c-3.277-13.022-14.977-22.158-28.406-22.18H138.33c-16.173,0.022-29.279,13.128-29.301,29.301v110.799
	L138.489,240.543z"/>
<path fill="#185CA0" d="M281.075,194.811l-15.078,52.416l-25.701,19.892l-35.806-57.966l-12.254-3.978l-25.203-6.266L143.8,244.9
	l-34.751,27.113v42.907c0.022,16.173,13.128,29.279,29.301,29.301h162.319c16.166-0.022,29.268-13.115,29.301-29.281V153.515
	L281.075,194.811z"/>
<path fill="#8EC4E8" d="M420.419,344.241H409.24c-16.057-0.011-29.071-13.025-29.082-29.082v-35.806
	c0.011-16.057,13.025-29.071,29.082-29.082h80.523c16.057,0.011,29.071,13.025,29.082,29.082v35.806
	c-0.011,16.057-13.025,29.071-29.082,29.082H420.419z"/>
<path fill="#FFC200" d="M429.43,388.978H140.995c-16.057,0.011-29.071,13.025-29.082,29.082v80.523
	c0.011,16.057,13.025,29.071,29.082,29.082h353.244c16.057-0.011,29.071-13.025,29.082-29.082V418.06
	c-0.011-16.057-13.025-29.071-29.082-29.082L429.43,388.978L429.43,388.978z"/>
<path fill="#FFFFFF" d="M473.193,514.199H119.85c-17.898-0.022-32.402-14.526-32.424-32.424v-80.523
	c0.022-17.898,14.526-32.402,32.424-32.424h353.343c17.898,0.022,32.402,14.526,32.424,32.424v80.523
	C505.595,499.673,491.091,514.177,473.193,514.199z M119.85,375.531c-14.2,0.011-25.709,11.52-25.72,25.72v80.523
	c0.011,14.201,11.52,25.709,25.72,25.72h353.343c14.2-0.011,25.71-11.52,25.72-25.72v-80.523c-0.011-14.2-11.52-25.709-25.72-25.72
	H119.85z"/>
<path fill="#FFFFFF" d="M468.757,330.794h-80.523c-17.898-0.022-32.402-14.526-32.424-32.424v-35.806
	c0.022-17.898,14.526-32.402,32.424-32.424h80.523c17.898,0.022,32.402,14.526,32.424,32.424v35.806
	C501.159,316.268,486.655,330.772,468.757,330.794z M388.234,236.863c-14.201,0.011-25.709,11.52-25.72,25.72v35.806
	c0.011,14.2,11.52,25.709,25.72,25.72h80.523c14.201-0.011,25.71-11.52,25.721-25.72v-35.806c-0.011-14.2-11.52-25.709-25.72-25.72
	H388.234z"/>
<path fill="#FFFFFF" d="M279.663,103.169H117.343c-18.03,0.022-32.641,14.633-32.663,32.663v162.319
	c0.022,18.03,14.633,32.641,32.663,32.663h162.319c18.03-0.022,32.641-14.633,32.663-32.663V135.831
	C312.304,117.801,297.693,103.19,279.663,103.169z M117.343,109.872h162.319c13.149,0.019,24.21,9.859,25.76,22.916l-49.869,41.395
	l-15.098,52.276l-18.082,14.024l-33.18-53.709l-14.76-4.893l-30.614-7.619l-25.024,49.531l-27.391,24.348V135.831
	C91.415,121.507,103.019,109.894,117.343,109.872L117.343,109.872z M279.663,324.09H117.343
	c-14.255-0.065-25.794-11.605-25.86-25.86v-41.535l0.239,0.259l32.563-28.963L147.46,182.1l25.203,6.266l12.254,3.978l35.806,57.985
	l25.701-19.892l15.078-52.396l44.18-36.681v156.809C305.649,312.511,294.003,324.112,279.663,324.09z"/>
</svg>
